4 0.05 0.9 0 0
ACETIC_ACID 10.0 10.0 10.0          
SODIUM   0.0 10.0 0.0          
LITHIUM           10.0 0.0 0.0          
POTASSIUM          0.0 0.0  10.0
k1 0 0 1 2 3
A                 3.33e-7 0. 0. 
T                 -1 -1 -1  1.323e-6 0.0267 4e-4         
AT                0.0 0.0 0.0           
k1 1.21831 1.75e-3 4 5 6
